{
  "merge_request": {
    "assignee_id": 181229,
    "target": {
      "visibility_level": 20,
      "homepage": "https://gitlab.com/gitlab-org/gitlab",
      "id": 278964,
      "git_http_url": "https://gitlab.com/gitlab-org/gitlab.git",
      "git_ssh_url": "git@gitlab.com:gitlab-org/gitlab.git",
      "path_with_namespace": "gitlab-org/gitlab",
      "url": "git@gitlab.com:gitlab-org/gitlab.git",
      "ssh_url": "git@gitlab.com:gitlab-org/gitlab.git",
      "default_branch": "master",
      "ci_config_path": "",
      "avatar_url": "https://gitlab.com/uploads/-/system/project/avatar/278964/logo-extra-whitespace.png",
      "name": "GitLab",
      "web_url": "https://gitlab.com/gitlab-org/gitlab",
      "http_url": "https://gitlab.com/gitlab-org/gitlab.git",
      "namespace": "GitLab.org",
      "description": "GitLab is an open source end-to-end software development platform with built-in version control, issue tracking, code review, CI/CD, and more. Self-host GitLab on your own servers, in a container, or on a cloud provider."
    },
    "author_id": 181229,
    "milestone_id": null,
    "time_change": 0,
    "created_at": "2022-01-31 17:19:06 UTC",
    "target_project_id": 278964,
    "head_pipeline_id": 460205861,
    "title": "Render submit button only once in Pages settings",
    "description": "## What does this MR do and why?\n\n_Describe in detail what your merge request does and why._\n\n<!--\nPlease keep this description updated with any discussion that takes place so\nthat reviewers can understand your intent. Keeping the description updated is\nespecially important if they didn't participate in the discussion.\n-->\n\n## Screenshots or screen recordings \n\n_These are strongly recommended to assist reviewers and reduce the time to merge your change._\n\n<!-- \nPlease include any relevant screenshots or screen recordings that will assist\nreviewers and future readers. If you need help visually verifying the change,\nplease leave a comment and ping a GitLab reviewer, maintainer, or MR coach.\n-->\n\n## How to set up and validate locally \n\n_Numbered steps to set up and validate the change are strongly suggested._\n\n<!-- \nExample below:\n \n1. Enable the invite modal\n   ```ruby\n   Feature.enable(:invite_members_group_modal)\n   ```\n1. In rails console enable the experiment fully\n   ```ruby\n   Feature.enable(:member_areas_of_focus)\n   ```\n1. Visit any group or project member pages such as `http://127.0.0.1:3000/groups/flightjs/-/group_members`\n1. Click the `invite members` button.\n-->\n\n## MR acceptance checklist\n\nThis checklist encourages us to confirm any changes have been analyzed to reduce risks in quality, performance, reliability, security, and maintainability. \n\n* [ ] I have evaluated the [MR acceptance checklist](https://docs.gitlab.com/ee/development/code_review.html#acceptance-checklist) for this MR.",
    "human_time_estimate": null,
    "merge_commit_sha": null,
    "last_edited_at": null,
    "merge_status": "can_be_merged",
    "blocking_discussions_resolved": true,
    "human_total_time_spent": null,
    "total_time_spent": 0,
    "source_project_id": 278964,
    "last_commit": {
      "url": "https://gitlab.com/gitlab-org/gitlab/-/commit/2d4cff14c48d8a6ea70f61e5281fed7af038b919",
      "timestamp": "2022-01-31T18:16:33+01:00",
      "id": "2d4cff14c48d8a6ea70f61e5281fed7af038b919",
      "title": "Render submit button only once in Pages settings",
      "message": "Render submit button only once in Pages settings\n\nUnder certain circumstances a \"Save changes\" button is rendered twice in\nthe Pages settings form. This changes it so that the button is only\nrendered once.\n\nChangelog: fixed\n",
      "author": {
        "email": "leipert@gitlab.com",
        "name": "Lukas Eipert"
      }
    },
    "last_edited_by_id": null,
    "url": "https://gitlab.com/gitlab-org/gitlab/-/merge_requests/79545",
    "time_estimate": 0,
    "state_id": 1,
    "iid": 79545,
    "human_time_change": null,
    "updated_at": "2022-01-31 17:21:08 UTC",
    "state": "opened",
    "work_in_progress": false,
    "assignee_ids": [181229],
    "target_branch": "master",
    "updated_by_id": 8962759,
    "source_branch": "leipert-fix-duplicate-save-button",
    "id": 137882768,
    "labels": [
      {
        "group_id": 9970,
        "created_at": "2021-11-18 21:26:27 UTC",
        "template": false,
        "project_id": null,
        "description": "Distribution Build Team",
        "title": "Distribution:Build",
        "updated_at": "2021-11-18 22:04:33 UTC",
        "color": "#cd5b45",
        "id": 22652295,
        "type": "GroupLabel"
      },
      {
        "id": 11717757,
        "color": "#004E00",
        "template": false,
        "updated_at": "2019-08-09 20:05:46 UTC",
        "project_id": null,
        "group_id": 9970,
        "created_at": "2019-08-09 20:05:46 UTC",
        "type": "GroupLabel",
        "description": "Issues to be scheduled for future release",
        "title": "For Scheduling"
      },
      {
        "color": "#AD4363",
        "id": 9852041,
        "group_id": 9970,
        "template": false,
        "description": "Issues for the Enablement stage of the DevOps livecycle (e.g., Geo, Application Performance, Distribution, Search)",
        "created_at": "2019-03-05 21:09:28 UTC",
        "type": "GroupLabel",
        "title": "devops::enablement",
        "updated_at": "2020-05-21 15:58:32 UTC",
        "project_id": null
      },
      {
        "template": false,
        "type": "GroupLabel",
        "project_id": null,
        "id": 10690780,
        "color": "#A8D695",
        "updated_at": "2019-05-22 20:12:21 UTC",
        "description": "Issues belonging to the Distribution group of the Enablement stage of the DevOps lifecycle. See https://about.gitlab.com/handbook/product/categories/#distribution-group",
        "group_id": 9970,
        "title": "group::distribution",
        "created_at": "2019-05-22 20:12:21 UTC"
      },
      {
        "type": "GroupLabel",
        "color": "#FFECDB",
        "project_id": null,
        "description": "Issues for further discussion by project Maintainers",
        "created_at": "2020-11-23 17:51:04 UTC",
        "updated_at": "2020-11-23 17:51:04 UTC",
        "group_id": 9970,
        "template": false,
        "id": 17179892,
        "title": "maintainer-discussion"
      },
      {
        "description": "Issues related to the Enablement section",
        "updated_at": "2020-05-11 22:13:49 UTC",
        "color": "#F0AD4E",
        "project_id": null,
        "title": "section::enablement",
        "type": "GroupLabel",
        "id": 14918396,
        "group_id": 9970,
        "template": false,
        "created_at": "2020-05-11 22:13:49 UTC"
      }
    ],
    "merge_when_pipeline_succeeds": false,
    "merge_error": null,
    "source": {
      "avatar_url": "https://gitlab.com/uploads/-/system/project/avatar/278964/logo-extra-whitespace.png",
      "namespace": "GitLab.org",
      "git_ssh_url": "git@gitlab.com:gitlab-org/gitlab.git",
      "web_url": "https://gitlab.com/gitlab-org/gitlab",
      "name": "GitLab",
      "ci_config_path": "",
      "description": "GitLab is an open source end-to-end software development platform with built-in version control, issue tracking, code review, CI/CD, and more. Self-host GitLab on your own servers, in a container, or on a cloud provider.",
      "http_url": "https://gitlab.com/gitlab-org/gitlab.git",
      "url": "git@gitlab.com:gitlab-org/gitlab.git",
      "ssh_url": "git@gitlab.com:gitlab-org/gitlab.git",
      "id": 278964,
      "homepage": "https://gitlab.com/gitlab-org/gitlab",
      "default_branch": "master",
      "path_with_namespace": "gitlab-org/gitlab",
      "git_http_url": "https://gitlab.com/gitlab-org/gitlab.git",
      "visibility_level": 20
    },
    "merge_user_id": null,
    "merge_params": {
      "force_remove_source_branch": true
    }
  },
  "event_type": "note",
  "project_id": 278964,
  "object_kind": "note",
  "user": {
    "avatar_url": "https://secure.gravatar.com/avatar/a8d470f77915860fa33d876ae2f3e2ba?s=80&d=identicon",
    "id": 8962759,
    "username": "project_278964_bot4",
    "email": "[REDACTED]",
    "name": "Danger bot"
  },
  "repository": {
    "homepage": "https://gitlab.com/gitlab-org/gitlab",
    "name": "GitLab",
    "url": "git@gitlab.com:gitlab-org/gitlab.git",
    "description": "GitLab is an open source end-to-end software development platform with built-in version control, issue tracking, code review, CI/CD, and more. Self-host GitLab on your own servers, in a container, or on a cloud provider."
  },
  "project": {
    "visibility_level": 20,
    "http_url": "https://gitlab.com/gitlab-org/gitlab.git",
    "avatar_url": "https://gitlab.com/uploads/-/system/project/avatar/278964/logo-extra-whitespace.png",
    "namespace": "GitLab.org",
    "url": "git@gitlab.com:gitlab-org/gitlab.git",
    "ssh_url": "git@gitlab.com:gitlab-org/gitlab.git",
    "description": "GitLab is an open source end-to-end software development platform with built-in version control, issue tracking, code review, CI/CD, and more. Self-host GitLab on your own servers, in a container, or on a cloud provider.",
    "ci_config_path": "",
    "web_url": "https://gitlab.com/gitlab-org/gitlab",
    "default_branch": "master",
    "id": 278964,
    "git_http_url": "https://gitlab.com/gitlab-org/gitlab.git",
    "git_ssh_url": "git@gitlab.com:gitlab-org/gitlab.git",
    "name": "GitLab",
    "homepage": "https://gitlab.com/gitlab-org/gitlab",
    "path_with_namespace": "gitlab-org/gitlab"
  },
  "object_attributes": {
    "note": "<table>\n  <thead>\n    <tr>\n      <th width=\"5%\"></th>\n      <th width=\"95%\" data-danger-table=\"true\" data-kind=\"Warning\">\n          3 Warnings\n      </th>\n     </tr>\n  </thead>\n  <tbody>\n    <tr>\n      <td>:warning:</td>\n      <td data-sticky=\"false\">You've made some app changes, but didn't add any tests.<br />\nThat's OK as long as you're refactoring existing code,<br />\nbut please consider adding any of the ~\"type::tooling\", ~\"maintenance::pipelines\", ~\"maintenance::workflow\", ~\"documentation\", ~\"QA\" labels.</td>\n    </tr>\n    <tr>\n      <td>:warning:</td>\n      <td data-sticky=\"false\">Please add a <a href=\"https://about.gitlab.com/handbook/engineering/metrics/#work-type-classification\">merge request type</a> to this merge request.</td>\n    </tr>\n    <tr>\n      <td>:warning:</td>\n      <td data-sticky=\"false\">This merge request does not refer to an existing milestone.</td>\n    </tr>\n  </tbody>\n</table>\n\n## Reviewer roulette\n\n\n\nChanges that require review have been detected!\n\nPlease refer to the table below for assigning reviewers and maintainers suggested by Danger in the specified category:\n\n| Category | Reviewer | Maintainer |\n| -------- | -------- | ---------- |\n| ~frontend | [Tom Quirk](https://gitlab.com/tomquirk) (`@tomquirk`) (UTC+9.5, 8.5 hours ahead of `@leipert`) | [Andrew Fontaine](https://gitlab.com/afontaine) (`@afontaine`) (UTC-5, 6 hours behind `@leipert`) |\n\n\nTo spread load more evenly across eligible reviewers, Danger has picked a candidate for each\nreview slot, based on their timezone. Feel free to\n[override these selections](https://about.gitlab.com/handbook/engineering/projects/#gitlab)\nif you think someone else would be better-suited\nor use the [GitLab Review Workload Dashboard](https://gitlab-org.gitlab.io/gitlab-roulette/) to find other available reviewers.\n\nTo read more on how to use the reviewer roulette, please take a look at the\n[Engineering workflow](https://about.gitlab.com/handbook/engineering/workflow/#basics)\nand [code review guidelines](https://docs.gitlab.com/ee/development/code_review.html).\nPlease consider assigning a reviewer or maintainer who is a\n[domain expert](https://about.gitlab.com/handbook/engineering/projects/#gitlab) in the area of the merge request.\n\nOnce you've decided who will review this merge request, assign them as a reviewer!\nDanger does not automatically notify them for you.\n\n\n**If needed, you can retry the [`danger-review` job](https://gitlab.com/gitlab-org/gitlab/-/jobs/2035806114) that generated this comment.**\n\n<p align=\"right\" data-meta=\"generated_by_danger\">\n  Generated by :no_entry_sign: <a href=\"https://github.com/danger/danger/\">Danger</a>\n</p>",
    "author_id": 8962759,
    "commit_id": null,
    "created_at": "2022-01-31 17:21:09 UTC",
    "updated_at": "2022-01-31 17:21:09 UTC",
    "updated_by_id": null,
    "resolved_at": null,
    "position": null,
    "attachment": null,
    "resolved_by_push": null,
    "url": "https://gitlab.com/gitlab-org/gitlab/-/merge_requests/79545#note_826964861",
    "st_diff": null,
    "line_code": null,
    "project_id": 278964,
    "noteable_id": 137882768,
    "noteable_type": "MergeRequest",
    "system": false,
    "id": 826964861,
    "original_position": null,
    "discussion_id": "ccd4ecf7a8b896c4b91fbc8ee7ffb3f38667265b",
    "description": "<table>\n  <thead>\n    <tr>\n      <th width=\"5%\"></th>\n      <th width=\"95%\" data-danger-table=\"true\" data-kind=\"Warning\">\n          3 Warnings\n      </th>\n     </tr>\n  </thead>\n  <tbody>\n    <tr>\n      <td>:warning:</td>\n      <td data-sticky=\"false\">You've made some app changes, but didn't add any tests.<br />\nThat's OK as long as you're refactoring existing code,<br />\nbut please consider adding any of the ~\"type::tooling\", ~\"maintenance::pipelines\", ~\"maintenance::workflow\", ~\"documentation\", ~\"QA\" labels.</td>\n    </tr>\n    <tr>\n      <td>:warning:</td>\n      <td data-sticky=\"false\">Please add a <a href=\"https://about.gitlab.com/handbook/engineering/metrics/#work-type-classification\">merge request type</a> to this merge request.</td>\n    </tr>\n    <tr>\n      <td>:warning:</td>\n      <td data-sticky=\"false\">This merge request does not refer to an existing milestone.</td>\n    </tr>\n  </tbody>\n</table>\n\n## Reviewer roulette\n\n\n\nChanges that require review have been detected!\n\nPlease refer to the table below for assigning reviewers and maintainers suggested by Danger in the specified category:\n\n| Category | Reviewer | Maintainer |\n| -------- | -------- | ---------- |\n| ~frontend | [Tom Quirk](https://gitlab.com/tomquirk) (`@tomquirk`) (UTC+9.5, 8.5 hours ahead of `@leipert`) | [Andrew Fontaine](https://gitlab.com/afontaine) (`@afontaine`) (UTC-5, 6 hours behind `@leipert`) |\n\n\nTo spread load more evenly across eligible reviewers, Danger has picked a candidate for each\nreview slot, based on their timezone. Feel free to\n[override these selections](https://about.gitlab.com/handbook/engineering/projects/#gitlab)\nif you think someone else would be better-suited\nor use the [GitLab Review Workload Dashboard](https://gitlab-org.gitlab.io/gitlab-roulette/) to find other available reviewers.\n\nTo read more on how to use the reviewer roulette, please take a look at the\n[Engineering workflow](https://about.gitlab.com/handbook/engineering/workflow/#basics)\nand [code review guidelines](https://docs.gitlab.com/ee/development/code_review.html).\nPlease consider assigning a reviewer or maintainer who is a\n[domain expert](https://about.gitlab.com/handbook/engineering/projects/#gitlab) in the area of the merge request.\n\nOnce you've decided who will review this merge request, assign them as a reviewer!\nDanger does not automatically notify them for you.\n\n\n**If needed, you can retry the [`danger-review` job](https://gitlab.com/gitlab-org/gitlab/-/jobs/2035806114) that generated this comment.**\n\n<p align=\"right\" data-meta=\"generated_by_danger\">\n  Generated by :no_entry_sign: <a href=\"https://github.com/danger/danger/\">Danger</a>\n</p>",
    "change_position": null,
    "type": null,
    "resolved_by_id": null
  }
}
